…
Load the data:

``` r
library(dwcongress)
```

To look at the tibble that contains the data, do this:

``` r
congress
#> # A tibble: 20,598 × 32
#>    congress   pid last  first middle suffix born       death      sex   position
#>       <dbl> <dbl> <chr> <chr> <chr>  <chr>  <date>     <date>     <chr> <chr>   
#>  1       79     1 Aber… Thom… Gerst… <NA>   1903-05-16 1953-01-23 M     U.S. Re…
#>  2       79     2 Adams Sher… <NA>   <NA>   1899-01-08 1986-10-27 M     U.S. Re…
#>  3       79     3 Aiken Geor… David  <NA>   1892-08-20 1984-11-19 M     U.S. Se…
#>  4       79     4 Allen Asa   Leona… <NA>   1891-01-05 1969-01-05 M     U.S. Re…
#>  5       79     5 Allen Leo   Elwood <NA>   1898-10-05 1973-01-19 M     U.S. Re…
#>  6       79     6 Almo… J.    Linds… Jr.    1898-06-15 1986-04-14 M     U.S. Re…
#>  7       79     7 Ande… Herm… Carl   <NA>   1897-01-27 1978-07-26 M     U.S. Re…
#>  8       79     8 Ande… Clin… Presba <NA>   1895-10-23 1975-11-11 M     U.S. Re…
#>  9       79     9 Ande… John  Zuing… <NA>   1904-03-22 1981-02-09 M     U.S. Re…
#> 10       79    10 Andr… Augu… Herman <NA>   1890-10-11 1958-01-14 M     U.S. Re…
#> # ℹ 20,588 more rows
#> # ℹ 22 more variables: party <chr>, state <chr>, district <chr>, start <date>,
#> #   end <chr>, religion <chr>, race <chr>, education <chr>, occ1 <chr>,
#> #   occ2 <chr>, occ3 <chr>, mil1 <chr>, mil2 <chr>, mil3 <chr>,
#> #   start_year <date>, end_year <date>, start_age <int>, poc <chr>,
#> #   days_old <dbl>, entry_age <int>, end_career <date>, yr_fac <fct>
```
